Home – index
…
Representing time

Temporal data structures are often limited.

Most time series datasets look like this:

# A tibble: 24,320 × 5
   Quarter    Region   State           Purpose  Trips
   <date>     <chr>    <chr>           <chr>    <dbl>
 1 1998-01-01 Adelaide South Australia Business  135.
 2 1998-04-01 Adelaide South Australia Business  110.
 3 1998-07-01 Adelaide South Australia Business  166.
 4 1998-10-01 Adelaide South Australia Business  127.
 5 1999-01-01 Adelaide South Australia Business  137.
 6 1999-04-01 Adelaide South Australia Business  200.
 7 1999-07-01 Adelaide South Australia Business  169.
 8 1999-10-01 Adelaide South Australia Business  134.
 9 2000-01-01 Adelaide South Australia Business  154.
10 2000-04-01 Adelaide South Australia Business  169.
# ℹ 24,310 more rows
…
Representing time

In tsibble time needs the right granularity.

# A tsibble: 24,320 x 5 [1Q]
# Key:       Region, State, Purpose [304]
   Quarter Region   State           Purpose  Trips
     <qtr> <chr>    <chr>           <chr>    <dbl>
 1 1998 Q1 Adelaide South Australia Business  135.
 2 1998 Q2 Adelaide South Australia Business  110.
 3 1998 Q3 Adelaide South Australia Business  166.
 4 1998 Q4 Adelaide South Australia Business  127.
 5 1999 Q1 Adelaide South Australia Business  137.
 6 1999 Q2 Adelaide South Australia Business  200.
 7 1999 Q3 Adelaide South Australia Business  169.
 8 1999 Q4 Adelaide South Australia Business  134.
 9 2000 Q1 Adelaide South Australia Business  154.
10 2000 Q2 Adelaide South Australia Business  169.
# ℹ 24,310 more rows
…
